[gd_scene load_steps=3 format=2]

[ext_resource path="res://icon.png" type="Texture" id=1]
[ext_resource path="res://Scripts/Trader.gd" type="Script" id=2]

[node name="Trader" type="TextureButton"]
script = ExtResource( 2 )
__meta__ = {
"_edit_use_anchors_": false
}

[node name="Sprite" type="Sprite" parent="."]
visible = false
modulate = Color( 0.0470588, 0.568627, 0.301961, 1 )
texture = ExtResource( 1 )

[node name="Timer" type="Timer" parent="."]
autostart = true
[connection signal="timeout" from="Timer" to="." method="_on_Timer_timeout"]
